%YAML 1.1
%TAG !u! tag:unity3d.com,2011:
--- !u!1045 &1
EditorBuildSettings:
  m_ObjectHideFlags: 0
  serializedVersion: 2
  m_Scenes:
  - enabled: 1
    path: Assets/CustomAssets/StaticText.unity
    guid: 477d65995a1c4ab4bab78f308b71cb3a
  - enabled: 1
    path: Assets/AssetBundleSample/Scenes/AssetLoader.unity
    guid: cd2b3f99825dd4345b6d8d163362e3e4
  - enabled: 1
    path: Assets/AssetBundleSample/Scenes/TanksLoader.unity
    guid: 5862ae6b6aa1d74418c15df67b425df7
  - enabled: 1
    path: Assets/AssetBundleSample/Scenes/VariantLoader.unity
    guid: 3c2643e7e7088a54883273b772693259
  - enabled: 1
    path: Assets/AssetBundleSample/SampleAssets/Tanks/Scenes/TanksExample.unity
    guid: 296160cc1f71f5c449071fc93408024e
  - enabled: 1
    path: Assets/AssetBundleSample/SampleAssets/Variants/VariantScene.unity
    guid: a6e96c7fcdb534dd9b98655682bc8c08
